{
    "user": @integer@,
    "power": 54,
    "cards": [
        @integer@,
        @integer@,
        @integer@,
        @integer@,
        @integer@,
        @integer@,
        @integer@,
        @integer@,
        @integer@,
        @integer@
    ],
    "_links": {
        "self": {
            "href": "\/api\/deck",
            "method": "GET"
        },
        "cards": {
            "href": "\/api\/deck\/cards",
            "method": "GET"
        }
    }
}
