{
    "id": @integer@,
    "name": "Ciri",
    "power": 75,
    "_links": {
        "self": {
            "href": "\/api\/cards\/@integer@",
            "method": "GET"
        },
        "edit": {
            "href": "\/api\/cards\/@integer@",
            "method": "PUT"
        },
        "patch": {
            "href": "\/api\/cards\/@integer@",
            "method": "PATCH"
        },
        "delete": {
            "href": "\/api\/cards\/@integer@",
            "method": "DELETE"
        }
    }
}
